…
## Exercise 14

``` r
uoe_art %>% 
  count(artist) %>% 
  arrange(desc(n))
```

    ## # A tibble: 1,198 × 2
    ##    artist                n
    ##    <chr>             <int>
    ##  1 <NA>                484
    ##  2 Emma Gillies        175
    ##  3 Ann F Ward           23
    ##  4 John Bellany         22
    ##  5 Zygmunt Bukowski     21
    ##  6 Boris Bućan          17
    ##  7 Marjorie Wallace     17
    ##  8 Gordon Bryce         16
    ##  9 William Gillon       16
    ## 10 Alan M. Alexander    14
    ## # ℹ 1,188 more rows
…
